…
Another way to do this would be to create a new variable (called, says,
`country`), then filter on this new variable. Remember that `mutate`
creates new variables. Then `dplyr::case_when` function is a nice way to
do multiple if-else statements. For example, your instructor could see
if there are any Denny’s in any the states that your instructor has
lived in:

``` r
dennys %>%
  mutate(bradford_lived = case_when(
    state %in% c("MI", "NC", "IL", "ME") ~ "Yes",
    TRUE ~ "No"))
```

    ## # A tibble: 1,643 x 7
    ##    address             city        state zip   longitude latitude bradford_lived
    ##    <chr>               <chr>       <chr> <chr>     <dbl>    <dbl> <chr>         
    ##  1 2900 Denali         Anchorage   AK    99503    -150.      61.2 No            
    ##  2 3850 Debarr Road    Anchorage   AK    99508    -150.      61.2 No            
    ##  3 1929 Airport Way    Fairbanks   AK    99701    -148.      64.8 No            
    ##  4 230 Connector Dr    Auburn      AL    36849     -85.5     32.6 No            
    ##  5 224 Daniel Payne D… Birmingham  AL    35207     -86.8     33.6 No            
    ##  6 900 16th St S, Com… Birmingham  AL    35294     -86.8     33.5 No            
    ##  7 5931 Alabama Highw… Cullman     AL    35056     -86.9     34.2 No            
    ##  8 2190 Ross Clark Ci… Dothan      AL    36301     -85.4     31.2 No            
    ##  9 900 Tyson Rd        Hope Hull … AL    36043     -86.4     32.2 No            
    ## 10 4874 University Dr… Huntsville  AL    35816     -86.7     34.7 No            
    ## # … with 1,633 more rows
…
To create a new variable called `country` where if the state is in the
US, `country` is set to `"United States"` we would then do:

``` r
dennys %>% 
  mutate(country = case_when(
    state %in% states$abbreviation ~ "United States",
    TRUE ~ "Other")) %>% 
  filter(country != "Other")
```

    ## # A tibble: 1,643 x 7
    ##    address                city         state zip   longitude latitude country   
    ##    <chr>                  <chr>        <chr> <chr>     <dbl>    <dbl> <chr>     
    ##  1 2900 Denali            Anchorage    AK    99503    -150.      61.2 United St…
    ##  2 3850 Debarr Road       Anchorage    AK    99508    -150.      61.2 United St…
    ##  3 1929 Airport Way       Fairbanks    AK    99701    -148.      64.8 United St…
    ##  4 230 Connector Dr       Auburn       AL    36849     -85.5     32.6 United St…
    ##  5 224 Daniel Payne Driv… Birmingham   AL    35207     -86.8     33.6 United St…
    ##  6 900 16th St S, Common… Birmingham   AL    35294     -86.8     33.5 United St…
    ##  7 5931 Alabama Highway,… Cullman      AL    35056     -86.9     34.2 United St…
    ##  8 2190 Ross Clark Circle Dothan       AL    36301     -85.4     31.2 United St…
    ##  9 900 Tyson Rd           Hope Hull (… AL    36043     -86.4     32.2 United St…
    ## 10 4874 University Drive  Huntsville   AL    35816     -86.7     34.7 United St…
    ## # … with 1,633 more rows
…
#### Isolating US locations

For the rest of this activity, we will work with the data from the
United States *only*. All Denny’s locations in our file are in the US so
we do not need to worry about updating this object, but you do need to
do some work on the `laquinta` data. Create a new object called
`laquinta_us` that only contains the locations inside the US.

``` r
laquinta_us <-laquinta %>%
  filter(state %in% states$abbreviation)
laquinta_us 
```

    ## # A tibble: 895 x 6
    ##    address                         city           state zip   longitude latitude
    ##    <chr>                           <chr>          <chr> <chr>     <dbl>    <dbl>
    ##  1 793 W. Bel Air Avenue           "\nAberdeen"   MD    21001     -76.2     39.5
    ##  2 3018 CatClaw Dr                 "\nAbilene"    TX    79606     -99.8     32.4
    ##  3 3501 West Lake Rd               "\nAbilene"    TX    79601     -99.7     32.5
    ##  4 184 North Point Way             "\nAcworth"    GA    30102     -84.7     34.1
    ##  5 2828 East Arlington Street      "\nAda"        OK    74820     -96.6     34.8
    ##  6 14925 Landmark Blvd             "\nAddison"    TX    75254     -96.8     33.0
    ##  7 909 East Frontage Rd            "\nAlamo"      TX    78516     -98.1     26.2
    ##  8 2116 Yale Blvd Southeast        "\nAlbuquerqu… NM    87106    -107.      35.1
    ##  9 7439 Pan American Fwy Northeast "\nAlbuquerqu… NM    87109    -107.      35.2
    ## 10 2011 Menaul Blvd Northeast      "\nAlbuquerqu… NM    87107    -107.      35.1
    ## # … with 885 more rows

### Fewest locations

Let’s test some of our data summary skills.

Which US state(s) has/ve the fewest Denny’s location?

``` r
dennys %>%
group_by(state) %>%
summarise(total_per_state = n()) %>%
arrange(total_per_state)  
```

    ## # A tibble: 51 x 2
    ##    state total_per_state
    ##    <chr>           <int>
    ##  1 DE                  1
    ##  2 DC                  2
    ##  3 VT                  2
    ##  4 AK                  3
    ##  5 IA                  3
    ##  6 NH                  3
    ##  7 SD                  3
    ##  8 WV                  3
    ##  9 LA                  4
    ## 10 MT                  4
    ## # … with 41 more rows

**Response**: DE ,DC and VT have the lowest number of locations.

Which US state(s) has/ve the fewest La Quinta locations?

``` r
laquinta_us %>%
group_by(state) %>%
summarise(count = n()) %>%
arrange(count)
```

    ## # A tibble: 48 x 2
    ##    state count
    ##    <chr> <int>
    ##  1 ME        1
    ##  2 AK        2
    ##  3 NH        2
    ##  4 RI        2
    ##  5 SD        2
    ##  6 VT        2
    ##  7 WV        3
    ##  8 WY        3
    ##  9 IA        4
    ## 10 MI        4
    ## # … with 38 more rows
…
``` r
dennys %>%
group_by(state) %>%
summarise(count = n()) %>%
inner_join(states, by = c("state" = "abbreviation")) %>%
mutate(denny_loc_tsm = (count/area)*1000) %>%
arrange(desc(denny_loc_tsm))
```

    ## # A tibble: 51 x 5
    ##    state count name                     area denny_loc_tsm
    ##    <chr> <int> <chr>                   <dbl>         <dbl>
    ##  1 DC        2 District of Columbia     68.3        29.3  
    ##  2 RI        5 Rhode Island           1545.          3.24 
    ##  3 CA      403 California           163695.          2.46 
    ##  4 CT       12 Connecticut            5543.          2.16 
    ##  5 FL      140 Florida               65758.          2.13 
    ##  6 MD       26 Maryland              12406.          2.10 
    ##  7 NJ       10 New Jersey             8723.          1.15 
    ##  8 NY       56 New York              54555.          1.03 
    ##  9 IN       37 Indiana               36420.          1.02 
    ## 10 OH       44 Ohio                  44826.          0.982
    ## # … with 41 more rows
…
#### La Quinta

Similarly as we previously did for Denny’s, calculate the number of La
Quinta locations *per* thousand square miles.

``` r
laquinta_us %>%  
group_by(state)%>%
summarise(count = n())%>%
inner_join(states, by = c("state"="abbreviation"))%>%
mutate( laquinta_loc_tsm = (count/area)*1000)%>%
arrange(desc(laquinta_loc_tsm))
```

    ## # A tibble: 48 x 5
    ##    state count name             area laquinta_loc_tsm
    ##    <chr> <int> <chr>           <dbl>            <dbl>
    ##  1 RI        2 Rhode Island    1545.            1.29 
    ##  2 FL       74 Florida        65758.            1.13 
    ##  3 CT        6 Connecticut     5543.            1.08 
    ##  4 MD       13 Maryland       12406.            1.05 
    ##  5 TX      237 Texas         268596.            0.882
    ##  6 TN       30 Tennessee      42144.            0.712
    ##  7 GA       41 Georgia        59425.            0.690
    ##  8 NJ        5 New Jersey      8723.            0.573
    ##  9 MA        6 Massachusetts  10554.            0.568
    ## 10 LA       28 Louisiana      52378.            0.535
    ## # … with 38 more rows
…
